{
    "body": null,
    "functions":[
        "function init(self)",
        "   print(\"YES! It is my time! I now exist!\")",
        "   self.myName = \"Say it.\"",
        "end",

        "function doSomething(self)",
        "   print(\"I'm helping!\"..self.myName)",
        "   self.myName = \"Said it.\"",
        "end",

        "function forceLoadOnWorldLoad(self)",
        "   return true",
        "end",

        "function save(self)",
        "   return self",
        "end",

        "function load(self, data)",
        "   print(\"My name: \"..data[\"myName\"])",
        "end"
    ]
}
